%YAML 1.1
%TAG !u! tag:unity3d.com,2011:
--- !u!1001 &1903616581137515577
PrefabInstance:
  m_ObjectHideFlags: 0
  serializedVersion: 2
  m_Modification:
    m_TransformParent: {fileID: 0}
    m_Modifications:
    - target: {fileID: 1465069388779752, guid: 9b37b7322d7ec22449603e5c2a5a61d1, type: 3}
      propertyPath: m_Name
      value: FallingLetterNoBonusVariant
      objectReference: {fileID: 0}
    - target: {fileID: 224459634645547080, guid: 9b37b7322d7ec22449603e5c2a5a61d1,
        type: 3}
      propertyPath: m_LocalPosition.x
      value: 0
      objectReference: {fileID: 0}
    - target: {fileID: 224459634645547080, guid: 9b37b7322d7ec22449603e5c2a5a61d1,
        type: 3}
      propertyPath: m_LocalPosition.y
      value: 0
      objectReference: {fileID: 0}
    - target: {fileID: 224459634645547080, guid: 9b37b7322d7ec22449603e5c2a5a61d1,
        type: 3}
      propertyPath: m_LocalPosition.z
      value: 0
      objectReference: {fileID: 0}
    - target: {fileID: 224459634645547080, guid: 9b37b7322d7ec22449603e5c2a5a61d1,
        type: 3}
      propertyPath: m_LocalRotation.x
      value: -0
      objectReference: {fileID: 0}
    - target: {fileID: 224459634645547080, guid: 9b37b7322d7ec22449603e5c2a5a61d1,
        type: 3}
      propertyPath: m_LocalRotation.y
      value: -0
      objectReference: {fileID: 0}
    - target: {fileID: 224459634645547080, guid: 9b37b7322d7ec22449603e5c2a5a61d1,
        type: 3}
      propertyPath: m_LocalRotation.z
      value: -0
      objectReference: {fileID: 0}
    - target: {fileID: 224459634645547080, guid: 9b37b7322d7ec22449603e5c2a5a61d1,
        type: 3}
      propertyPath: m_LocalRotation.w
      value: 1
      objectReference: {fileID: 0}
    - target: {fileID: 224459634645547080, guid: 9b37b7322d7ec22449603e5c2a5a61d1,
        type: 3}
      propertyPath: m_RootOrder
      value: 0
      objectReference: {fileID: 0}
    - target: {fileID: 224459634645547080, guid: 9b37b7322d7ec22449603e5c2a5a61d1,
        type: 3}
      propertyPath: m_LocalEulerAnglesHint.x
      value: 0
      objectReference: {fileID: 0}
    - target: {fileID: 224459634645547080, guid: 9b37b7322d7ec22449603e5c2a5a61d1,
        type: 3}
      propertyPath: m_LocalEulerAnglesHint.y
      value: 0
      objectReference: {fileID: 0}
    - target: {fileID: 224459634645547080, guid: 9b37b7322d7ec22449603e5c2a5a61d1,
        type: 3}
      propertyPath: m_LocalEulerAnglesHint.z
      value: 0
      objectReference: {fileID: 0}
    - target: {fileID: 224459634645547080, guid: 9b37b7322d7ec22449603e5c2a5a61d1,
        type: 3}
      propertyPath: m_AnchoredPosition.x
      value: -2.45
      objectReference: {fileID: 0}
    - target: {fileID: 224459634645547080, guid: 9b37b7322d7ec22449603e5c2a5a61d1,
        type: 3}
      propertyPath: m_AnchoredPosition.y
      value: 2.51
      objectReference: {fileID: 0}
    - target: {fileID: 224459634645547080, guid: 9b37b7322d7ec22449603e5c2a5a61d1,
        type: 3}
      propertyPath: m_SizeDelta.x
      value: 11
      objectReference: {fileID: 0}
    - target: {fileID: 224459634645547080, guid: 9b37b7322d7ec22449603e5c2a5a61d1,
        type: 3}
      propertyPath: m_SizeDelta.y
      value: 2
      objectReference: {fileID: 0}
    - target: {fileID: 224459634645547080, guid: 9b37b7322d7ec22449603e5c2a5a61d1,
        type: 3}
      propertyPath: m_AnchorMin.x
      value: 0.5
      objectReference: {fileID: 0}
    - target: {fileID: 224459634645547080, guid: 9b37b7322d7ec22449603e5c2a5a61d1,
        type: 3}
      propertyPath: m_AnchorMin.y
      value: 0.5
      objectReference: {fileID: 0}
    - target: {fileID: 224459634645547080, guid: 9b37b7322d7ec22449603e5c2a5a61d1,
        type: 3}
      propertyPath: m_AnchorMax.x
      value: 0.5
      objectReference: {fileID: 0}
    - target: {fileID: 224459634645547080, guid: 9b37b7322d7ec22449603e5c2a5a61d1,
        type: 3}
      propertyPath: m_AnchorMax.y
      value: 0.5
      objectReference: {fileID: 0}
    - target: {fileID: 224459634645547080, guid: 9b37b7322d7ec22449603e5c2a5a61d1,
        type: 3}
      propertyPath: m_Pivot.x
      value: 0.5
      objectReference: {fileID: 0}
    - target: {fileID: 224459634645547080, guid: 9b37b7322d7ec22449603e5c2a5a61d1,
        type: 3}
      propertyPath: m_Pivot.y
      value: 0.5
      objectReference: {fileID: 0}
    - target: {fileID: 23964739728701034, guid: 9b37b7322d7ec22449603e5c2a5a61d1,
        type: 3}
      propertyPath: m_Enabled
      value: 1
      objectReference: {fileID: 0}
    m_RemovedComponents: []
  m_SourcePrefab: {fileID: 100100000, guid: 9b37b7322d7ec22449603e5c2a5a61d1, type: 3}
